1. Summary
Meeting title	Python training
Attended participants	9
Start time	9/19/22, 8:29:01 AM
End time	9/19/22, 9:44:39 AM
Meeting duration	1h 15m 39s
Average attendance time	1h 7m 30s

2. Participants
Name	First join	Last leave	In-meeting duration	Email	Participant ID (UPN)	Role
Maria Marquina Guevara	9/19/22, 8:29:16 AM	9/19/22, 9:44:32 AM	1h 15m 15s	Maria.Marquina@jala.university	Maria.Marquina@jala.university	Organizer
Adrian Clavijo Lopez	9/19/22, 8:29:24 AM	9/19/22, 9:44:38 AM	1h 15m 13s	Adrian.Clavijo@jala.university	Adrian.Clavijo@jala.university	Presenter
Diego Jauregui Salvatierra	9/19/22, 8:29:26 AM	9/19/22, 9:44:35 AM	1h 15m 8s	Diego.Jauregui@jala.university	Diego.Jauregui@jala.university	Presenter
Andres Galvis Bolivar	9/19/22, 8:29:50 AM	9/19/22, 9:44:38 AM	1h 14m 48s	Andres.Galvis@jala.university	Andres.Galvis@jala.university	Presenter
Martin Ferreyra	9/19/22, 8:30:01 AM	9/19/22, 9:44:36 AM	1h 14m 34s	Martin.Ferreyra@jala.university	Martin.Ferreyra@jala.university	Presenter
Camilo Villalba Sanz	9/19/22, 8:30:42 AM	9/19/22, 9:44:35 AM	1h 13m 52s	Camilo.Villalba@jala.university	Camilo.Villalba@jala.university	Presenter
Sergio Mallea Morales	9/19/22, 8:31:18 AM	9/19/22, 9:44:36 AM	1h 13m 18s	Sergio.Mallea@jala.university	Sergio.Mallea@jala.university	Presenter
Jason Pineda Serna	9/19/22, 8:32:07 AM	9/19/22, 9:44:33 AM	1h 12m 25s	Jason.Pineda@jala.university	Jason.Pineda@jala.university	Presenter
Jesus Vallecilla Solano	9/19/22, 9:31:42 AM	9/19/22, 9:44:39 AM	12m 57s	Jesus.Vallecilla@jala.university	Jesus.Vallecilla@jala.university	Presenter

3. In-Meeting activities
Name	Join time	Leave time	Duration	Email	Role
Maria Marquina Guevara	9/19/22, 8:29:16 AM	9/19/22, 9:44:32 AM	1h 15m 15s	Maria.Marquina@jala.university	Organizer
Adrian Clavijo Lopez	9/19/22, 8:29:24 AM	9/19/22, 9:44:38 AM	1h 15m 13s	Adrian.Clavijo@jala.university	Presenter
Diego Jauregui Salvatierra	9/19/22, 8:29:26 AM	9/19/22, 9:44:35 AM	1h 15m 8s	Diego.Jauregui@jala.university	Presenter
Andres Galvis Bolivar	9/19/22, 8:29:50 AM	9/19/22, 9:44:38 AM	1h 14m 48s	Andres.Galvis@jala.university	Presenter
Martin Ferreyra	9/19/22, 8:30:01 AM	9/19/22, 9:44:36 AM	1h 14m 34s	Martin.Ferreyra@jala.university	Presenter
Camilo Villalba Sanz	9/19/22, 8:30:42 AM	9/19/22, 9:44:35 AM	1h 13m 52s	Camilo.Villalba@jala.university	Presenter
Sergio Mallea Morales	9/19/22, 8:31:18 AM	9/19/22, 9:44:36 AM	1h 13m 18s	Sergio.Mallea@jala.university	Presenter
Jason Pineda Serna	9/19/22, 8:32:07 AM	9/19/22, 9:44:33 AM	1h 12m 25s	Jason.Pineda@jala.university	Presenter
Jesus Vallecilla Solano	9/19/22, 9:31:42 AM	9/19/22, 9:44:39 AM	12m 57s	Jesus.Vallecilla@jala.university	Presenter
